%YAML 1.1
%TAG !u! tag:unity3d.com,2011:
--- !u!1045 &1
EditorBuildSettings:
  m_ObjectHideFlags: 0
  serializedVersion: 2
  m_Scenes:
  - enabled: 1
    path: "Assets/Scenes/Men\xFAPrincipal.unity"
    guid: 451054d9658079343a7febd6ae8a8b62
  - enabled: 1
    path: "Assets/Scenes/Recuperaci\xF3n.unity"
    guid: e82fc2e3c2e51b24aac44a02b43f536a
  m_configObjects: {}
